{
    "features":[
        {
            "img": "maze-green.png",
            "title": "INTELLIGENZA ARTIFICIALE",
            "description": "Modelli quantitativi proprietari <br/> trading basati su analisi e strategie <br> istituzionali usati dai migliori hedge <br> fund."
        },
        {
            "img": "three-arrwos.png",
            "title": "Multi Strategy",
            "description": "Trading system basati su diverse <br> strategie, per tutte le fasi di <br> mercato. Intraday, microtrend, <br> medio-lungo termine."
        },
        {
            "img": "finger-print.png",
            "title": "Multi Strategy",
            "description": "Trading system basati su diverse <br> strategie, per tutte le fasi di <br> mercato. Intraday, microtrend, <br> medio-lungo termine."
        },
        {
            "img": "360.png",
            "title": "COPERTURA DI TUTTI I MERCATI",
            "description": "•FX •Commodities <br> •Index •Stocks"
        },
        {
            "img": "mt.png",
            "title": "MT4-MT5",
            "description": "•Personalizzazioni completa <br> •Supporto Dedicato <br> •Aggiornamento Settimanale <br> •Intergrazione con i broker"
        },
        {
            "img": "balance.png",
            "title": "Risk Management",
            "description": "I nostri algoritmi sono sviluppati per <br> individuare il miglior rapporto rischio/ <br> rendimento e hanno stop loss <br> programmati che consentono una <br> gestione ottimale del rischio."
        }
    ],
    "products": [
        {
            "title": "Trend following",
            "description": "•Momentum: Opera a favore di <br> trend sulla base della forza <br> •Break out: Opera a favore di trend <br> sulla base della rottura dei diversi <br> livelli di supporto e resistenza <br> •Swing trading: Opera a favore di <br> trend sulla base delle oscillazioni <br> contrarie entrando long sui minimi <br> rispetto ai trend rialzisti e viceversa"
        },
        {
            "title": "Flat range",
            "description": "•Grid: Opera senza alcun filtro di <br> trend, ma su oscillazioni laterali del <br> prezzo operando sia al rialzo che a <br> ribasso <br> •Ipercomprato e ipervenduto <br> Opera durante le fasi laterali del <br> mercato vendendo in fase di <br> ipercomprato e comprando in fase <br> di ipervenduto"
        },
        {
            "title": "Arbitrage",
            "description": "•Correlation: Opera in <br> contrapposizione con strumenti <br> correlati positivamente tra di loro <br> sfruttando il differenziale tra i due <br> movimenti <br> •Intermarket Opera in <br> contrapposizione sullo stesso <br> strumento quotato su mercati <br> diversi sfruttando il differenziale di <br> pre"
        }
    ]
}